@startuml
object Model { 
 title = "RequirementsModel" 
}
object RG1{ 
 name = "UserReqs" 
}
Model *-- RG1
object RG2{ 
 name = "SystemReqs" 
}
Model *-- RG2
object R1{ 
name = "MinimumMeetingTime" 
 title ="MinimumMeetingTime" 
 description ="Requirement1" 
 author ="Catarina" 
 priority ="HIGH" 
 resolution ="ACCEPTED" 
 state ="NEW" 
}
RG1 *-- R1
object R2{ 
name = "BackEndLanguage" 
 title ="BackEndLanguage" 
 description ="Requirement2" 
 author ="Catarina" 
 priority ="MEDIUM" 
 resolution ="INVALID" 
 state ="REVIEWED" 
}
RG2 *-- R2
object R3{ 
name = "DateLibrary" 
 title ="DateLibrary" 
 description ="Requirement3" 
 author ="Catarina" 
 priority ="LOW" 
 resolution ="IMPLEMENTEED" 
 state ="RESOLVED" 
}
RG2 *-- R3
@enduml
